{
    "/searchservice/*": {
        "target": "http://localhost:8080",
        "secure": false,
        "logLevel": "debug"
    },
    "/applications/*": {
        "target": "http://localhost:8080",
        "secure": false,
        "logLevel": "debug"
    },
    "/currentuser/*": {
        "target": "http://localhost:8080",
        "secure": false,
        "logLevel": "debug"
    },
    "/appmenuConfig/**": {
        "target": "http://localhost:8080",
        "secure": false,
        "logLevel": "debug"
    },
    "/datatransferservice/*": {
        "target": "http://localhost:8080",
        "secure": false,
        "logLevel": "debug"
    },
    "/accessManagement/*": {
        "target": "http://localhost:8080",
        "secure": false,
        "logLevel": "debug"
    },
    "/sc/*": {
        "target": "http://localhost:8080",
        "secure": false,
        "logLevel": "debug"
    },
    "/logViewer/*": {
        "target": "http://localhost:8080",
        "secure": false,
        "logLevel": "debug"
    },
    "/logData/*": {
        "target": "http://localhost:8080",
        "secure": false,
        "logLevel": "debug"
    },
    "/js/*": {
        "target": "http://localhost:8080",
        "secure": false,
        "logLevel": "debug"
    },
    "/resource/*": {
        "target": "http://localhost:8080",
        "secure": false,
        "logLevel": "debug"
    },
    "/lea/*": {
        "target": "http://localhost:8080",
        "secure": false,
        "logLevel": "debug"
    },
    "/serviceregistry/*": {
        "target": "http://localhost:8080",
        "secure": false,
        "logLevel": "debug"
    },
    "/dataqueryservice/*": {
        "target": "http://localhost:8080",
        "secure": false,
        "logLevel": "debug"
    }
}