{
    "realm": "DEMO",
    "auth-server-url": "http://localhost:8080/auth",
    "ssl-required": "external",
    "resource": "angular-test",
    "credentials": {
      "secret": "bd04d914-c882-40a7-86be-c410e80799c0"
    },
    "confidential-port": 0,
    "policy-enforcer": {}
  }